<svg xmlns="http://www.w3.org/2000/svg" fill="#26419f" viewBox="0 0 160 160">
  <path d="M76.4 130.2H33.5c-1.2 0-2.2-.9-2.4-2.1l-1.5-13.9-3.3 14.2c-.3 1.1-1.2 1.8-2.3 1.8H9.7c-.7 0-1.4-.3-1.9-.9-.5-.6-.6-1.3-.4-2l8.8-36.2c4.7-15.6 19.8-26 36-24.8 38.3 2.9 66 3.5 78.1 1.5 3.2-.5 6.4.9 8.3 3.6 1.3 2 1.7 4.5 1.1 6.8-.6 2.3-2.2 4.2-4.4 5.3-9.4 4.6-28.7 11.8-52.9 10.4l-3.5 34.2c-.2 1.2-1.3 2.1-2.5 2.1zm-40.8-4.8h38.6L77.7 91c.1-1.3 1.3-2.3 2.6-2.1 24.3 2 43.5-5.2 52.8-9.7.9-.4 1.6-1.2 1.8-2.2.3-1 .1-2.1-.5-2.9-.8-1.2-2.1-1.8-3.5-1.5-16 2.6-51.9.7-79.2-1.4-13.9-1.1-27 7.9-31 21.3l-8 33.1h9.4l6-25.9c.3-1.1 1.3-1.9 2.5-1.8 1.2.1 2.1 1 2.2 2.1l2.8 25.4z"/>
  <path d="M54.5 116.1c-.7 0-1.4-.3-1.8-.9l-11.4-13.8c-2.2-2.6-2.7-6.2-1.4-9.4 1.3-3.1 3.9-5.1 7.2-5.4 2.7-.3 5.4.6 7.4 2.3 2-1.7 4.8-2.5 7.4-2.3 3.2.3 5.9 2.4 7.2 5.4 1.3 3.2.8 6.8-1.4 9.4l-11.4 13.8c-.4.6-1.1.9-1.8.9zm-6.4-24.7h-.6c-2.1.2-3 1.8-3.2 2.5-.5 1.2-.6 3.1.7 4.6l9.5 11.5L64 98.5c1.3-1.5 1.2-3.4.7-4.6-.3-.7-1.2-2.3-3.2-2.5-1.8-.2-3.9.7-5 2.4-.9 1.3-3.1 1.3-4 0-1-1.5-2.6-2.4-4.4-2.4zM58.2 63c-11 0-19.9-8.9-19.9-19.9s8.9-19.9 19.9-19.9c11 0 19.9 8.9 19.9 19.9S69.2 63 58.2 63zm0-35.1c-8.4 0-15.2 6.8-15.2 15.2 0 8.4 6.8 15.2 15.2 15.2 8.4 0 15.2-6.8 15.2-15.2 0-8.4-6.8-15.2-15.2-15.2zM106.5 65.2c-9.8 0-17.8-8-17.8-17.8s8-17.8 17.8-17.8 17.8 8 17.8 17.8c-.1 9.8-8 17.8-17.8 17.8zm0-30.8c-7.2 0-13 5.8-13 13s5.8 13 13 13 13-5.8 13-13c0-7.1-5.9-13-13-13zM150.3 130.2h-17.5c-.9 0-1.8-.5-2.2-1.4l-4.2-9.1v8.1c0 1.3-1.1 2.4-2.4 2.4H86c-.7 0-1.3-.3-1.8-.8s-.7-1.2-.6-1.8l3-27.7c.1-1.2 1.2-2.1 2.4-2.1.3 0 28.9-.1 48.5-11.4.6-.4 1.4-.4 2.1-.1.7.3 1.2.8 1.4 1.5l11.7 39.4c.2.7.1 1.5-.4 2.1-.5.5-1.2.9-2 .9zm-16-4.8h12.8l-10-33.5c-17.4 8.9-39.2 10.3-46.1 10.5l-2.4 23h33v-16.6c0-1.1.8-2.1 1.9-2.3 1.1-.2 2.2.3 2.7 1.3l8.1 17.6z"/>
  <circle fill="#fcaf17" cx="35.6" cy="115.5" r="29.5" opacity=".25"/>
</svg>