<svg xmlns="http://www.w3.org/2000/svg" fill="#26419f" viewBox="0 0 160 160">
  <path d="M137.3 32.1h-31c3.4-3.1 5.5-7.6 5.5-12.5 0-9.4-7.6-17-17-17C88.5 2.5 82.9 6 80 11.1 77.1 6 71.5 2.5 65.2 2.5c-9.4 0-17 7.6-17 17 0 5 2.1 9.4 5.5 12.5h-31c-6.9 0-12.6 5.6-12.6 12.6V56c0 6.2 4.6 11.4 10.5 12.4v73.4c0 6.7 5.5 12.2 12.2 12.2h94.4c6.7 0 12.2-5.5 12.2-12.2V96.2c0-1.2-1-2.3-2.2-2.3-1.2 0-2.3 1-2.3 2.3v45.6c0 4.2-3.4 7.7-7.7 7.7h-33V68.6h40.7v18.6c0 1.2 1 2.3 2.2 2.3 1.2 0 2.3-1 2.3-2.3V68.5c6-1 10.5-6.2 10.5-12.4V44.7c0-7-5.7-12.6-12.6-12.6zm-66.9 4.5h19.3v112.9H70.4V36.6zm18.2-17.3c3.5 0 6.4 2.9 6.4 6.4 0 3.5-2.8 6.4-6.4 6.4h-6.4v-6.4c.1-3.5 2.9-6.4 6.4-6.4zM77.8 32.1h-6.4c-3.5 0-6.4-2.9-6.4-6.4 0-3.5 2.9-6.4 6.4-6.4 3.5 0 6.4 2.9 6.4 6.4v6.4zM94.8 7c6.9 0 12.5 5.6 12.5 12.5 0 5.9-4.1 10.9-9.7 12.2 1.2-1.7 1.8-3.8 1.8-6 0-6-4.9-10.9-10.9-10.9-2.2 0-4.3.7-6 1.8C83.9 11.1 88.9 7 94.8 7zM52.7 19.6c0-7 5.6-12.6 12.5-12.6 5.9 0 10.9 4.1 12.2 9.7-1.7-1.2-3.8-1.8-6-1.8-6 0-10.9 4.9-10.9 10.9 0 2.2.7 4.3 1.8 6-5.5-1.3-9.6-6.3-9.6-12.2zM32.8 149.5c-4.2 0-7.7-3.4-7.7-7.7V68.6H42c1.2 0 2.2-1 2.2-2.3 0-1.2-1-2.2-2.2-2.2H22.7c-4.5 0-8.1-3.6-8.1-8.1V44.7c0-4.5 3.6-8.1 8.1-8.1h43.1v27.5H51.1c-1.2 0-2.3 1-2.3 2.2 0 1.2 1 2.3 2.3 2.3h14.8v80.9H32.8zM145.4 56c0 4.5-3.6 8.1-8.1 8.1H94.1V36.6h43.1c4.5 0 8.1 3.6 8.1 8.1l.1 11.3z"/>
  <circle fill="#fcaf17" cx="127.8" cy="83.2" r="29.5" opacity=".25"/>
</svg>