<svg xmlns="http://www.w3.org/2000/svg" viewBox="0 0 160 160">
  <path fill="#616161" d="M115.3 19.9C114.1 14 109 9.7 102.8 9.7c-1.4 0-2.5 1.1-2.5 2.5s1.1 2.5 2.5 2.5c4.2 0 7.6 3.4 7.6 7.6s-3.4 7.6-7.6 7.6c-1.4 0-2.5 1.1-2.5 2.5s1.1 2.5 2.5 2.5c6.1 0 11.3-4.4 12.5-10.2h33.4v22.9H11.2V24.9h43.2c1.4 0 2.5-1.1 2.5-2.5s-1.1-2.5-2.5-2.5h-4.6c1.1-3 3.9-5.1 7.2-5.1 4.2 0 7.6 3.4 7.6 7.6S61.2 30 57 30c-1.4 0-2.5 1.1-2.5 2.5S55.6 35 57 35c7 0 12.7-5.7 12.7-12.7S64 9.7 57 9.7c-6.1 0-11.3 4.4-12.5 10.2H6.1v135h147.7v-135h-38.5zm33.4 129.8H11.2V53h137.5v96.7z"/>
  <path fill="#616161" d="M72.3 14.8c4.2 0 7.6 3.4 7.6 7.6S76.5 30 72.3 30c-1.4 0-2.5 1.1-2.5 2.5s1.1 2.5 2.5 2.5c7 0 12.7-5.7 12.7-12.7S79.3 9.7 72.3 9.7c-1.4 0-2.5 1.1-2.5 2.5s1.1 2.6 2.5 2.6zM87.6 14.8c4.2 0 7.6 3.4 7.6 7.6S91.8 30 87.6 30c-1.4 0-2.5 1.1-2.5 2.5s1.1 2.5 2.5 2.5c7 0 12.7-5.7 12.7-12.7S94.6 9.7 87.6 9.7c-1.4 0-2.5 1.1-2.5 2.5s1.1 2.6 2.5 2.6zM29 73.3h56c1.4 0 2.5-1.1 2.5-2.5s-1.1-2.5-2.5-2.5H29c-1.4 0-2.5 1.1-2.5 2.5s1.1 2.5 2.5 2.5zM130.9 109H92.7c-1.4 0-2.5 1.1-2.5 2.5s1.1 2.5 2.5 2.5h38.2c1.4 0 2.5-1.1 2.5-2.5s-1.1-2.5-2.5-2.5zM29 93.7h25.5c1.4 0 2.5-1.1 2.5-2.5s-1.1-2.5-2.5-2.5H29c-1.4 0-2.5 1.1-2.5 2.5s1.1 2.5 2.5 2.5zM130.9 129.3h-25.5c-1.4 0-2.5 1.1-2.5 2.5s1.1 2.5 2.5 2.5h25.5c1.4 0 2.5-1.1 2.5-2.5 0-1.3-1.1-2.5-2.5-2.5zM77.4 91.2c0 1.4 1.1 2.5 2.5 2.5h38.2c1.4 0 2.5-1.1 2.5-2.5s-1.1-2.5-2.5-2.5H79.9c-1.4-.1-2.5 1-2.5 2.5zM69 93c.5-.5.7-1.1.7-1.8s-.3-1.3-.7-1.8c-.9-.9-2.7-.9-3.6 0-.5.5-.7 1.1-.7 1.8s.3 1.3.7 1.8c.5.5 1.1.7 1.8.7s1.3-.3 1.8-.7zM39.2 111.5c0 1.4 1.1 2.5 2.5 2.5h38.2c1.4 0 2.5-1.1 2.5-2.5s-1.1-2.5-2.5-2.5H41.7c-1.4 0-2.5 1.1-2.5 2.5zM29 114.1c.7 0 1.3-.3 1.8-.7.5-.5.7-1.1.7-1.8s-.3-1.3-.7-1.8c-.9-1-2.7-1-3.6 0-.5.5-.7 1.1-.7 1.8s.3 1.3.7 1.8c.5.4 1.1.7 1.8.7zM130.9 93.7c.7 0 1.3-.3 1.8-.7.5-.5.7-1.1.7-1.8s-.3-1.3-.7-1.8c-1-.9-2.7-.9-3.6 0-.5.5-.7 1.1-.7 1.8s.3 1.3.7 1.8c.4.4 1.1.7 1.8.7zM92.7 129.3H29c-1.4 0-2.5 1.1-2.5 2.5s1.1 2.5 2.5 2.5h63.7c1.4 0 2.5-1.1 2.5-2.5 0-1.3-1.1-2.5-2.5-2.5z"/>
</svg>