<svg fill="#fff" xmlns="http://www.w3.org/2000/svg" viewBox="0 0 160 160">
  <circle cx="83.1" cy="63.5" r="29.5" opacity=".25"/>
  <path d="M76.4 148.4c-.3 0-.5 0-.8-.1-2-.8-49-18.8-49-51.7V35.7c0-1 .7-1.9 1.6-2.1l16.3-4.3c1.2-.3 2.4.4 2.7 1.5.3 1.2-.4 2.4-1.5 2.7L31 37.4v59.2c0 27.9 39.8 45 45.5 47.3 5.7-1.8 45.4-15.7 45.4-47.3v-3c0-1.2 1-2.2 2.2-2.2s2.2 1 2.2 2.2v3c0 15.5-8.6 29.4-24.8 40.2-12.1 8-23.9 11.4-24.4 11.6-.3-.1-.5 0-.7 0z"/>
  <path d="M96.9 84.7c-20.1 0-36.5-16.4-36.5-36.6s16.4-36.5 36.5-36.5 36.5 16.4 36.5 36.5-16.3 36.6-36.5 36.6zm0-68.7c-17.7 0-32.1 14.4-32.1 32.1S79.2 80.3 97 80.3c17.7 0 32.2-14.4 32.2-32.2-.1-17.7-14.5-32.1-32.3-32.1z"/>
  <path d="M91.2 60.2c-.7 0-1.3-.3-1.7-.8l-7.7-9.6c-.8-.9-.6-2.3.3-3.1s2.3-.6 3.1.3l6.1 7.7 17.5-18c.8-.9 2.2-.9 3.1-.1.9.8.9 2.2.1 3.1L92.7 59.6c-.4.4-.9.6-1.5.6zM76.4 125.3c-.3 0-.5 0-.8-.1-1.3-.5-32.8-12.6-32.8-34.7v-40c0-1.2 1-2.2 2.2-2.2s2.2 1 2.2 2.2v40c0 17.5 24.8 28.5 29.2 30.4 3.7-1.2 21.1-7.5 27-20.8.5-1.1 1.8-1.6 2.9-1.1s1.6 1.8 1.1 2.9c-7.5 16.7-29.6 23.2-30.5 23.4-.1-.1-.3 0-.5 0z"/>
</svg>
