<svg fill="#26419f" xmlns="http://www.w3.org/2000/svg" viewBox="0 0 160 160">
  <circle fill="#fcaf17" cx="107.4" cy="78.1" r="29.5" opacity=".52"/>
  <path d="M120.8 149.4c-.5 0-.9-.2-1.2-.5L89 118.3l30.7-30.7 30.6 30.6c.7.7.7 1.8 0 2.5s-1.8.7-2.5 0l-28.1-28.1L94 118.3l28.1 28.1c.7.7.7 1.8 0 2.5-.4.3-.8.5-1.3.5z"/>
  <path d="M104 132.5c-.5 0-.9-.2-1.2-.5-.7-.7-.7-1.8 0-2.5l28.2-28.2c.7-.7 1.8-.7 2.5 0s.7 1.8 0 2.5L105.3 132c-.5.4-.8.5-1.3.5zM118.1 108.3c-1.1 0-2.1-.4-2.8-1.2-1.5-1.5-1.5-4.1 0-5.6s4.1-1.5 5.6 0 1.5 4.1 0 5.6c-.7.8-1.7 1.2-2.8 1.2zm0-4.4c-.1 0-.2 0-.3.1-.2.2-.2.5 0 .6.2.2.4.2.6 0s.2-.5 0-.6c-.1-.1-.2-.1-.3-.1zM74.5 103c-.5 0-.9-.2-1.2-.5L41.6 70.9c-2.4-2.4-2.4-6.2 0-8.5l1.5-1.5c2.4-2.4 6.2-2.4 8.5 0l19.6 19.6c.7.7.7 1.8 0 2.5s-1.8.7-2.5 0L49.1 63.4c-.9-.9-2.6-.9-3.6 0l-1.4 1.5c-.5.5-.7 1.1-.7 1.8s.3 1.3.7 1.8l31.6 31.6c.7.7.7 1.8 0 2.5-.4.3-.7.4-1.2.4z"/>
  <path d="M50.4 63.9c-.5 0-.9-.2-1.2-.5-2.4-2.4-2.4-6.2 0-8.5l1.5-1.5c2.4-2.4 6.2-2.4 8.5 0 .7.7.7 1.8 0 2.5s-1.8.7-2.5 0c-1-1-2.6-1-3.6 0l-1.5 1.5c-1 1-1 2.6 0 3.6.7.7.7 1.8 0 2.5-.3.2-.8.4-1.2.4z"/>
  <path d="M77.6 75.9c-.5 0-.9-.2-1.2-.5L56.7 55.8c-1.1-1.1-1.8-2.7-1.8-4.3s.6-3.1 1.8-4.3l1.5-1.5c1.1-1.1 2.7-1.8 4.3-1.8s3.1.6 4.3 1.8l19.6 19.6c.7.7.7 1.8 0 2.5s-1.8.7-2.5 0L64.3 48.2c-1-1-2.6-1-3.6 0l-1.5 1.5c-1 1-1 2.6 0 3.6l19.6 19.6c.7.7.7 1.8 0 2.5-.3.3-.7.5-1.2.5z"/>
  <path d="M119.3 92.3c-.5 0-.9-.2-1.2-.5-.7-.7-.7-1.8 0-2.5.9-.9.3-2-.1-2.5L71.8 40.7c-.9-.9-2.6-.9-3.6 0l-1.5 1.5c-1 1-1 2.6 0 3.6.7.7.7 1.8 0 2.5s-1.8.7-2.5 0c-2.4-2.4-2.4-6.2 0-8.5l1.5-1.5c1.1-1.1 2.7-1.8 4.3-1.8s3.1.6 4.3 1.8l46.2 46.2c1.3 1.6 2.4 4.8-.1 7.3-.2.3-.6.5-1.1.5zM86.6 121.8c-2.8 0-5.3-1.4-6.6-2.7l-15.5-15.5c-4.2-4.1-.6-11.6-.4-11.9.4-.9 1.5-1.2 2.4-.8.9.4 1.2 1.5.8 2.4 0 .1-2.6 5.6-.2 7.9l15.4 15.4c.4.3 4.2 3.6 7.8 0 .7-.7 1.8-.7 2.5 0s.7 1.8 0 2.5c-2 2-4.2 2.7-6.2 2.7zM31.7 61L10.2 39.5c-.7-.7-.7-1.8 0-2.5s1.8-.7 2.5 0l19 19 25.7-25.7-19-19c-.7-.7-.7-1.8 0-2.5s1.8-.7 2.5 0l21.5 21.5L31.7 61z"/>
  <path d="M19.2 47.8c-.5 0-.9-.2-1.2-.5-.7-.7-.7-1.8 0-2.5l28.1-28.2c.7-.7 1.8-.7 2.5 0s.7 1.8 0 2.5L20.4 47.3c-.3.3-.8.5-1.2.5zM45.7 35.9c-1 0-2-.4-2.8-1.2-1.5-1.5-1.5-4.1 0-5.6.7-.8 1.7-1.2 2.8-1.2s2.1.4 2.8 1.2c1.5 1.5 1.5 4.1 0 5.6-.8.8-1.8 1.2-2.8 1.2zm0-4.4c-.1 0-.2 0-.3.1-.2.2-.2.5 0 .6.2.2.5.2.6 0 .2-.2.2-.5 0-.6-.1-.1-.2-.1-.3-.1zM79.3 47.4c-.5 0-.9-.2-1.2-.5L63.2 32c-.4-.4-1.5-1-2.5-.1-.7.7-1.8.7-2.5 0s-.7-1.8 0-2.5c2.5-2.5 5.7-1.4 7.3-.1l.1.1 14.9 14.9c.7.7.7 1.8 0 2.5-.2.5-.7.6-1.2.6zM51.7 87.5c-1.9 0-3.9-.5-5.4-2L30.9 70.1c-2.2-2.3-4.9-7.9 0-12.8.7-.7 1.8-.7 2.5 0s.7 1.8 0 2.5c-3.6 3.6-.3 7.4.1 7.9l15.4 15.4c2 2 6.5.4 7.9-.2.9-.4 1.9-.1 2.4.8.4.9.1 1.9-.8 2.4-.3-.1-3.4 1.4-6.7 1.4z"/>
  <g>
    <path d="M39.1 151.7c-.5 0-.9-.2-1.2-.5-.7-.7-.7-1.8 0-2.5L66 120.6 40.3 95l-28.1 28.1c-.7.7-1.8.7-2.5 0s-.7-1.8 0-2.5L40.3 90 71 120.7l-30.6 30.6c-.4.3-.8.4-1.3.4z"/>
    <path d="M56 134.9c-.5 0-.9-.2-1.2-.5l-28.2-28.2c-.7-.7-.7-1.8 0-2.5s1.8-.7 2.5 0l28.2 28.2c.7.7.7 1.8 0 2.5-.4.3-.9.5-1.3.5zM54.3 123c-1 0-2-.4-2.8-1.2-1.5-1.5-1.5-4.1 0-5.6s4.1-1.5 5.6 0 1.5 4.1 0 5.6c-.8.8-1.8 1.2-2.8 1.2zm0-4.4c-.1 0-.2 0-.3.1-.2.2-.2.5 0 .6.2.2.5.2.6 0 .2-.2.2-.5 0-.6-.1-.1-.2-.1-.3-.1zM70.5 123c-1.2 0-2.4-.4-3.5-1.5-.7-.7-.7-1.8 0-2.5s1.8-.7 2.5 0c.9.9 2 .3 2.5-.1l5.2-5.2c.7-.7 1.8-.7 2.5 0s.7 1.8 0 2.5l-5.4 5.4c-1 .8-2.3 1.4-3.8 1.4zM40.8 94.2c-.5 0-.9-.2-1.2-.5-4.7-4.7-2.4-10-.3-12.4.1-.1.1-.2.2-.2l2.5-2.5c.7-.7 1.8-.7 2.5 0s.7 1.8 0 2.5l-2.3 2.3c-.4.5-3.6 4.3 0 7.8.7.7.7 1.8 0 2.5-.5.4-1 .5-1.4.5z"/>
  </g>
  <g>
    <path d="M119.3 72.7L88.7 42l30.6-30.6c.7-.7 1.8-.7 2.5 0s.7 1.8 0 2.5L93.7 42l25.7 25.7 28.1-28.1c.7-.7 1.8-.7 2.5 0s.7 1.8 0 2.5l-30.7 30.6z"/>
    <path d="M131.8 59.4c-.5 0-.9-.2-1.2-.5l-28.2-28.2c-.7-.7-.7-1.8 0-2.5s1.8-.7 2.5 0l28.2 28.2c.7.7.7 1.8 0 2.5-.3.4-.8.5-1.3.5zM105.3 47.6c-1 0-2-.4-2.8-1.2-1.5-1.5-1.5-4.1 0-5.6s4.1-1.5 5.6 0 1.5 4.1 0 5.6c-.6.8-1.8 1.2-2.8 1.2zm0-4.4c-.1 0-.2 0-.3.1-.2.2-.2.5 0 .6.2.2.5.2.6 0 .2-.2.2-.5 0-.6.1-.1-.1-.1-.3-.1zM81.3 49.4c-.5 0-.9-.2-1.2-.5-.7-.7-.7-1.8 0-2.5l5.4-5.4c1.6-1.3 4.8-2.4 7.3.1.7.7.7 1.8 0 2.5s-1.8.7-2.5 0c-.9-.9-2-.3-2.5.1l-5.2 5.2c-.3.4-.8.5-1.3.5zM116.6 84.6c-.5 0-.9-.2-1.2-.5-.7-.7-.7-1.8 0-2.5l2-2 .3-.3c.4-.4 3.7-4.2 0-7.9-.7-.7-.7-1.8 0-2.5s1.8-.7 2.5 0c4.8 4.8 2.3 10.3.2 12.6l-.1.1-2.4 2.4c-.4.4-.9.6-1.3.6z"/>
  </g>
</svg>
