<svg fill="#fff" xmlns="http://www.w3.org/2000/svg" viewBox="0 0 160 160">
  <circle cx="80" cy="80" r="29.5" opacity=".25"/>
  <path d="M141.7 143.6H37.2c-11.5 0-20.9-9.4-20.9-20.9V18.3c0-1.1.9-2 2-2s2 .9 2 2v104.5c0 9.3 7.6 16.9 16.9 16.9h104.5c1.1 0 2 .9 2 2s-.9 1.9-2 1.9z"/>
  <path d="M43 106.7c-.5 0-1-.2-1.4-.6-.8-.8-.7-2.1 0-2.8l34.7-33.6 18.2 18.2 34-35c.8-.8 2-.8 2.8 0s.8 2 0 2.8L94.5 93.5 76.2 75.3l-31.8 30.8c-.4.3-.9.6-1.4.6z"/>
  <path d="M129.9 75.5c-1.1 0-2-.9-2-2V56.3h-17.3c-1.1 0-2-.9-2-2s.9-2 2-2h21.3v21.3c0 1.1-.9 1.9-2 1.9z"/>
</svg>
