<svg fill="#fff" xmlns="http://www.w3.org/2000/svg" viewBox="0 0 160 160">
  <circle cx="39.1" cy="45.9" r="29.5" opacity=".25"/>
  <path d="M142.4 85H17.6c-1.3 0-2.3-1-2.3-2.3V48.2c0-1.3 1-2.3 2.3-2.3h124.8c1.3 0 2.3 1 2.3 2.3v34.5c0 1.3-1 2.3-2.3 2.3zM20 80.4h120.2V50.5H20v29.9z"/>
  <path d="M132.3 151.8H27.8c-1.3 0-2.3-1-2.3-2.3V82.7c0-1.3 1-2.3 2.3-2.3h104.5c1.3 0 2.3 1 2.3 2.3v66.8c0 1.3-1 2.3-2.3 2.3zm-102.2-4.6H130V85H30.1v62.2z"/>
  <path d="M92.4 151.8H67.7c-1.3 0-2.3-1-2.3-2.3V82.7c0-1.3 1-2.3 2.3-2.3h24.7c1.3 0 2.3 1 2.3 2.3v66.8c0 1.3-1 2.3-2.3 2.3zM70 147.2h20.1V85H70v62.2zM98.2 50.5H79.3c-1.3 0-2.3-1-2.3-2.3V29.4c0-11.7 9.5-21.1 21.1-21.1s21.1 9.5 21.1 21.1c0 5.6-2.2 10.9-6.1 14.8-3.9 4.1-9.2 6.3-14.9 6.3zm-16.6-4.6h16.5c4.5 0 8.6-1.8 11.8-4.9 3.1-3.1 4.8-7.2 4.8-11.6 0-9.1-7.4-16.5-16.5-16.5s-16.5 7.4-16.5 16.5v16.5h-.1zM61.9 50.5c-11.7 0-21.1-9.5-21.1-21.1S50.2 8.2 61.9 8.2c5.6 0 10.9 2.2 14.8 6.1.9.9.9 2.4 0 3.3s-2.4.9-3.3 0c-3.1-3.1-7.2-4.8-11.6-4.8-9.1 0-16.5 7.4-16.5 16.5s7.5 16.6 16.6 16.6c1.3 0 2.3 1 2.3 2.3s-1 2.3-2.3 2.3z"/>
</svg>
