<svg fill="#fff" xmlns="http://www.w3.org/2000/svg" viewBox="0 0 160 160">
  <circle cx="52.5" cy="59.3" r="29.5" opacity=".25"/>
  <path d="M145 110H15V11.5h130V110zm-126-4h122V15.5H19V106z"/>
  <path d="M80 148.5c-1.1 0-2-.9-2-2V108c0-1.1.9-2 2-2s2 .9 2 2v38.5c0 1.1-.9 2-2 2zM119.4 143.8c-.6 0-1.2-.2-1.5-.7l-27.8-33.8c-.7-.9-.6-2.1.3-2.8.9-.7 2.1-.6 2.8.3l27.8 33.8c.7.9.6 2.1-.3 2.8-.4.3-.9.4-1.3.4zM40.3 143.8c-.4 0-.9-.1-1.3-.5-.9-.7-1-2-.3-2.8l27.8-33.8c.7-.9 2-1 2.8-.3.9.7 1 2 .3 2.8L41.8 143c-.4.6-1 .8-1.5.8zM83 42.1H45.8c-1.1 0-2-.9-2-2s.9-2 2-2H83c1.1 0 2 .9 2 2s-.9 2-2 2zM120.2 65.5H45.8c-1.1 0-2-.9-2-2s.9-2 2-2h74.4c1.1 0 2 .9 2 2s-.9 2-2 2zM112.9 82.8H45.8c-1.1 0-2-.9-2-2s.9-2 2-2h67.1c1.1 0 2 .9 2 2s-.9 2-2 2z"/>
</svg>
