<svg fill="#26419f" xmlns="http://www.w3.org/2000/svg" viewBox="0 0 160 160">
  <circle fill="#fcaf17" cx="65.7" cy="80" r="29.5" opacity=".52"/>
  <path d="M132 150.6H28c-1.4 0-2.5-1.1-2.5-2.5V28.4c0-1.4 1.1-2.5 2.5-2.5h20c1.4 0 2.5 1.1 2.5 2.5s-1.1 2.5-2.5 2.5H30.5v114.8h99V30.9h-18.1c-1.4 0-2.5-1.1-2.5-2.5s1.1-2.5 2.5-2.5H132c1.4 0 2.5 1.1 2.5 2.5v119.8c0 1.4-1.1 2.4-2.5 2.4z"/>
  <path d="M111.2 38.6H48c-1.4 0-2.5-1.1-2.5-2.5V21.5c0-1.4 1.1-2.5 2.5-2.5h16.6c2.1-5.7 8.1-9.6 15-9.6s12.9 3.9 15 9.6h16.6c1.4 0 2.5 1.1 2.5 2.5v14.6c0 1.3-1.1 2.5-2.5 2.5zm-60.7-5h58.2V24h-16c-1.2 0-2.2-.9-2.5-2-.8-4.3-5.4-7.5-10.6-7.5S69.8 17.7 69 22c-.2 1.2-1.3 2-2.5 2h-16v9.6zM74.7 73.6c-.8 0-1.5-.4-1.9-.9L65 63.1c-.9-1.1-.7-2.7.4-3.5 1.1-.9 2.7-.7 3.5.4l5.9 7.4 17.3-17.9c1-1 2.5-1 3.5-.1 1 1 1 2.5.1 3.5l-19.2 20c-.5.4-1.1.7-1.8.7zM109.9 89.3H49.2c-1.4 0-2.5-1.1-2.5-2.5s1.1-2.5 2.5-2.5h60.7c1.4 0 2.5 1.1 2.5 2.5s-1.1 2.5-2.5 2.5zM109.9 110.1H49.2c-1.4 0-2.5-1.1-2.5-2.5s1.1-2.5 2.5-2.5h60.7c1.4 0 2.5 1.1 2.5 2.5s-1.1 2.5-2.5 2.5zM109.9 130.4H49.2c-1.4 0-2.5-1.1-2.5-2.5s1.1-2.5 2.5-2.5h60.7c1.4 0 2.5 1.1 2.5 2.5 0 1.5-1.1 2.5-2.5 2.5z"/>
</svg>
