<svg xmlns="http://www.w3.org/2000/svg" fill="#fff" viewBox="0 0 160 160">
  <circle cx="58" cy="107.2" r="29.5" opacity=".25"/>
  <path d="M18.9 122.2c-.5-.5-1.3-.9-2.1-.9s-1.5.3-2.1.9c-.5.5-.9 1.3-.9 2.1s.3 1.5.9 2.1c.5.5 1.3.9 2.1.9s1.5-.3 2.1-.9c.5-.5.9-1.3.9-2.1s-.3-1.5-.9-2.1z"/>
  <path d="M136.1 38.2l-19.5-13.1c-3.7-2.5-8.2-3.5-12.4-2.8.2-.9.3-1.9.3-2.8 0-3.7-1.4-7.1-4-9.7l-1.3-1.3c-2.6-2.6-6-4-9.7-4s-7.1 1.4-9.7 4c-2.6 2.6-4 6-4 9.7 0 3.7 1.4 7.1 4 9.7l1.3 1.3c1.7 1.7 3.7 2.8 5.8 3.5L67.3 47.4c-1.2.9-2.2 2.2-2.7 3.5-1.4-.3-2.9-.2-4.3.3l-19 6.8c.7-1.6 1.1-3.4 1.1-5.3v-1.9c0-7.6-6.2-13.7-13.7-13.7S15 43.3 15 50.8v1.9c0 5.3 3 9.9 7.4 12.2-4.9 2.1-8.2 7-8.2 12.4v34.8c0 1.6 1.3 2.9 2.9 2.9 1.6 0 2.9-1.3 2.9-2.9v-5.3h11.5c.6 0 1.2-.2 1.6-.5l13.2-9c1.3-.9 2.8-1.3 4.4-1.3 4.3 0 7.8 3.5 7.8 7.8v18.1l-8.2 3.3v-14.6c0-1.1-.6-2-1.5-2.5s-2-.5-2.9 0l-14.8 8.8c-1.8 1.1-3 3.1-3 5.2V148h-8.2v-12.3c0-1.6-1.3-2.9-2.9-2.9-1.6 0-2.9 1.3-2.9 2.9v15.2c0 1.6 1.3 2.9 2.9 2.9h14c1.6 0 2.9-1.3 2.9-2.9V122c0-.1.1-.2.1-.2l10.4-6.2v35.3c0 1.6 1.3 2.9 2.9 2.9h97.5c1.6 0 2.9-1.3 2.9-2.9V59.4c-.1-8.6-4.4-16.5-11.6-21.2zM85.2 25l-1.3-1.3c-1.5-1.5-2.3-3.5-2.3-5.6 0-2.1.8-4.1 2.3-5.6 1.5-1.5 3.5-2.3 5.6-2.3s4.1.8 5.6 2.3l1.3 1.3c3.1 3.1 3.1 8.1 0 11.2-3.1 3.1-8.1 3.1-11.2 0zM70.8 52.1l29-21.8c4-3 9.5-3.2 13.7-.4l16.2 10.9-14.3 11.5-11.2-7.6c-.8-.5-1.8-.7-2.7-.3L73 56.1c-1.1.4-2.3 0-2.9-1-.5-1-.3-2.3.7-3zm-50.2.6v-1.9c0-4.4 3.5-7.9 7.9-7.9s7.9 3.5 7.9 7.9v1.9c0 4.4-3.5 7.9-7.9 7.9s-7.9-3.5-7.9-7.9zm16.7 28.2v15.3l-6.9 4.7H19.8V77.2c0-3.2 2-6.1 5-7.2l37.4-13.3c1-.4 2.2 0 2.8 1 .6 1 .3 2.4-.7 3.1L38.6 78.5c-.8.6-1.3 1.5-1.3 2.4zm13.2 9.2c-2.6 0-5.2.8-7.4 2.2v-9.8l24.4-16.8c1.4-1 2.4-2.3 3-3.8.5.1 1.1.2 1.7.2 1 0 2.1-.2 3.1-.6l26.9-11 11.6 7.8c2.6 2 4.1 5.1 4.1 8.4v22.9h-5.7c-.6 0-1.3.2-1.8.6l-29 22.4-17.2 6.9v-15.8c-.1-7.5-6.2-13.6-13.7-13.6zm91.3 57.8H50.1v-16.6l33.7-13.5c.3-.1.5-.2.7-.4L113 95.3h28.7v52.6zm0-58.3H136v-23c0-1.6-1.3-2.9-2.9-2.9-1.6 0-2.9 1.3-2.9 2.9v23h-6.4V66.7c0-3.9-1.4-7.6-3.8-10.5l14.7-11.8c4.5 3.7 7.2 9.2 7.2 15.1v30.1z"/>
  <path d="M130.7 107.2h-6.8c-1.6 0-2.9 1.3-2.9 2.9s1.3 2.9 2.9 2.9h3.9v11.3c0 1.6 1.3 2.9 2.9 2.9s2.9-1.3 2.9-2.9v-14.2c0-1.6-1.3-2.9-2.9-2.9zM132.7 133.6c-.5-.5-1.3-.9-2.1-.9s-1.5.3-2.1.9c-.5.5-.9 1.3-.9 2.1s.3 1.5.9 2.1 1.3.9 2.1.9 1.5-.3 2.1-.9c.5-.5.9-1.3.9-2.1s-.3-1.5-.9-2.1z"/>
</svg>